WCG Inclusion Group Analysis - 2 Client Survey
…
Show code

t_prog_sum

Table 2.19: Client Reflections on Making Progress (Net Agreement)

`summarise()` has grouped output by 'ig'. You can override using the `.groups`
argument.

# A tibble: 27 × 3
# Groups:   ig [9]
   ig    var                    net_agree
   <chr> <chr>                      <dbl>
 1 [DIS] progress_reflections_1     0.662
 2 [DIS] progress_reflections_2     0.523
 3 [DIS] progress_reflections_3     0.546
 4 [FRA] progress_reflections_1     0.747
 5 [FRA] progress_reflections_2     0.742
 6 [FRA] progress_reflections_3     0.700
 7 [IND] progress_reflections_1     0.447
 8 [IND] progress_reflections_2     0.633
 9 [IND] progress_reflections_3     0.394
10 [NEW] progress_reflections_1     0.511
# ℹ 17 more rows
…
